<svg xmlns="http://www.w3.org/2000/svg" xmlns:xlink="http://www.w3.org/1999/xlink" preserveAspectRatio="xMidYMid" width="75.062" height="77.97" viewBox="0 0 75.062 77.97">
  <defs>
    <style>
      .cls-1 {
        fill: #ff6800;
        fill-rule: evenodd;
      }
    </style>
  </defs>
  <path d="M74.065,77.970 L1.975,77.970 C1.374,77.970 0.973,77.574 0.973,76.979 C0.973,76.385 1.374,75.989 1.975,75.989 L74.065,75.989 C74.666,75.989 75.067,76.385 75.067,76.979 C75.067,77.574 74.666,77.970 74.065,77.970 ZM14.227,39.554 L14.227,37.372 L21.971,32.636 L23.989,32.636 L23.989,65.137 L21.830,65.137 L21.830,34.958 L14.227,39.554 ZM46.096,65.694 C42.200,65.694 39.056,64.115 36.568,60.912 C34.127,57.708 32.907,53.669 32.907,48.887 C32.907,44.104 34.127,40.111 36.568,36.908 C39.056,33.704 42.200,32.079 46.096,32.079 C49.944,32.079 53.089,33.704 55.576,36.908 C58.064,40.111 59.284,44.104 59.284,48.887 C59.284,53.669 58.064,57.708 55.576,60.912 C53.089,64.115 49.944,65.694 46.096,65.694 ZM57.125,48.887 C57.125,44.661 56.093,41.133 53.981,38.347 C51.915,35.515 49.287,34.122 46.096,34.122 C42.904,34.122 40.276,35.515 38.163,38.347 C36.098,41.133 35.066,44.661 35.066,48.887 C35.066,53.112 36.098,56.640 38.163,59.472 C40.276,62.258 42.904,63.651 46.096,63.651 C49.287,63.651 51.915,62.258 53.981,59.472 C56.093,56.640 57.125,53.112 57.125,48.887 ZM70.861,72.720 C70.861,73.315 70.461,73.711 69.860,73.711 L6.180,73.711 C5.579,73.711 5.179,73.315 5.179,72.720 C5.179,72.225 5.679,71.730 6.180,71.730 L69.860,71.730 C70.461,71.730 70.861,72.126 70.861,72.720 ZM70.060,26.662 L3.977,26.662 C1.174,26.662 0.272,25.672 0.072,24.879 C-0.128,24.087 0.072,22.799 2.275,21.313 L31.312,1.602 C34.516,-0.577 39.622,-0.577 42.726,1.602 L71.763,21.313 C74.065,22.799 74.166,24.087 73.965,24.879 C73.765,25.672 72.864,26.662 70.060,26.662 ZM70.761,22.997 L41.725,3.286 C40.423,2.395 38.821,1.998 37.119,1.998 C35.417,1.998 33.715,2.395 32.513,3.286 L3.477,22.997 C2.375,23.790 2.075,24.285 2.075,24.384 C2.075,24.384 2.676,24.681 4.077,24.681 L70.161,24.681 C71.562,24.681 72.063,24.384 72.163,24.285 C72.163,24.285 71.863,23.790 70.761,22.997 Z" class="cls-1"/>
</svg>
