<svg xmlns="http://www.w3.org/2000/svg" xmlns:xlink="http://www.w3.org/1999/xlink" preserveAspectRatio="xMidYMid" width="52" height="52" viewBox="0 0 52 52">
  <defs>
    <style>
      .cls-1 {
        stroke: #212121;
        stroke-width: 2px;
        fill: none;
        opacity: 0.8;
      }

      .cls-2 {
        fill: #212121;
        fill-rule: evenodd;
      }
    </style>
  </defs>
  <g>
    <circle cx="26" cy="26" r="25" class="cls-1"/>
    <path d="M28.354,19.858 L23.213,25.000 L28.353,30.140 C28.826,30.613 28.826,31.379 28.353,31.852 C27.880,32.325 27.113,32.325 26.641,31.852 L20.649,25.861 C20.412,25.624 20.293,25.313 20.294,25.002 C20.292,24.690 20.410,24.378 20.647,24.141 L26.639,18.149 C27.113,17.675 27.881,17.675 28.354,18.149 C28.826,18.620 28.826,19.386 28.354,19.858 Z" class="cls-2"/>
  </g>
</svg>
