<svg xmlns="http://www.w3.org/2000/svg" xmlns:xlink="http://www.w3.org/1999/xlink" preserveAspectRatio="xMidYMid" width="36" height="36" viewBox="0 0 36 36">
  <defs>
    <style>
      .cls-1 {
        fill: #fff;
        stroke: #bdbdbd;
        stroke-width: 1px;
      }

      .cls-1, .cls-2 {
        opacity: 0.5;
      }

      .cls-2 {
        fill: #212121;
        fill-rule: evenodd;
      }
    </style>
  </defs>
  <g>
    <circle cx="18" cy="18" r="17.5" class="cls-1"/>
    <path d="M20.683,12.019 L15.790,17.016 L20.681,22.012 C21.132,22.471 21.132,23.216 20.681,23.675 C20.231,24.135 19.502,24.135 19.052,23.675 L13.350,17.853 C13.124,17.622 13.012,17.320 13.012,17.018 C13.010,16.715 13.122,16.412 13.349,16.181 L19.051,10.358 C19.501,9.897 20.232,9.897 20.683,10.358 C21.132,10.816 21.132,11.560 20.683,12.019 Z" class="cls-2"/>
  </g>
</svg>
