<svg xmlns="http://www.w3.org/2000/svg" xmlns:xlink="http://www.w3.org/1999/xlink" preserveAspectRatio="xMidYMid" width="16" height="16" viewBox="0 0 16 16">
  <defs>
    <style>
      .cls-1 {
        fill: #757575;
        fill-rule: evenodd;
      }
    </style>
  </defs>
  <path d="M9.123,7.998 L15.758,14.635 C16.070,14.947 16.070,15.452 15.758,15.764 C15.602,15.920 15.398,15.998 15.194,15.998 C14.989,15.998 14.785,15.920 14.629,15.764 L7.994,9.127 L1.360,15.764 C1.204,15.920 0.999,15.998 0.795,15.998 C0.591,15.998 0.386,15.920 0.231,15.764 C-0.081,15.452 -0.081,14.947 0.231,14.635 L6.866,7.998 L0.231,1.361 C-0.081,1.049 -0.081,0.544 0.231,0.232 C0.542,-0.080 1.048,-0.080 1.360,0.232 L7.994,6.869 L14.629,0.232 C14.941,-0.080 15.446,-0.080 15.758,0.232 C16.070,0.544 16.070,1.049 15.758,1.361 L9.123,7.998 Z" class="cls-1"/>
</svg>
