<svg xmlns="http://www.w3.org/2000/svg" xmlns:xlink="http://www.w3.org/1999/xlink" preserveAspectRatio="xMidYMid" width="22.062" height="22.06" viewBox="0 0 22.062 22.06">
  <defs>
    <style>
      .cls-1 {
        fill: #fff;
        fill-rule: evenodd;
      }
    </style>
  </defs>
  <path d="M21.981,15.572 C21.927,16.744 21.741,17.545 21.469,18.246 C21.187,18.970 20.811,19.585 20.198,20.197 C19.586,20.810 18.971,21.186 18.247,21.468 C17.546,21.740 16.745,21.926 15.573,21.980 C14.398,22.033 14.023,22.046 11.031,22.046 C8.039,22.046 7.664,22.033 6.489,21.980 C5.316,21.926 4.516,21.740 3.815,21.468 C3.090,21.186 2.476,20.810 1.864,20.197 C1.251,19.585 0.875,18.970 0.593,18.246 C0.321,17.545 0.134,16.744 0.081,15.572 C0.027,14.397 0.015,14.022 0.015,11.030 C0.015,8.038 0.027,7.663 0.081,6.488 C0.134,5.315 0.321,4.515 0.593,3.814 C0.875,3.089 1.251,2.475 1.864,1.863 C2.476,1.250 3.090,0.873 3.815,0.592 C4.516,0.320 5.316,0.133 6.489,0.080 C7.664,0.026 8.039,0.013 11.031,0.013 C14.023,0.013 14.398,0.026 15.573,0.080 C16.745,0.133 17.546,0.320 18.247,0.592 C18.971,0.873 19.586,1.250 20.198,1.863 C20.811,2.475 21.187,3.089 21.469,3.814 C21.741,4.515 21.927,5.315 21.981,6.488 C22.034,7.663 22.047,8.038 22.047,11.030 C22.047,14.022 22.034,14.397 21.981,15.572 ZM19.998,6.578 C19.949,5.504 19.770,4.921 19.619,4.533 C19.419,4.019 19.180,3.652 18.795,3.266 C18.409,2.881 18.042,2.642 17.528,2.442 C17.140,2.291 16.556,2.112 15.482,2.063 C14.321,2.010 13.972,1.999 11.031,1.999 C8.089,1.999 7.741,2.010 6.579,2.063 C5.505,2.112 4.922,2.291 4.534,2.442 C4.020,2.642 3.653,2.881 3.267,3.266 C2.882,3.652 2.643,4.019 2.443,4.533 C2.292,4.921 2.113,5.504 2.064,6.578 C2.011,7.740 2.000,8.088 2.000,11.030 C2.000,13.971 2.011,14.320 2.064,15.482 C2.113,16.556 2.292,17.139 2.443,17.527 C2.643,18.041 2.882,18.408 3.267,18.793 C3.653,19.179 4.020,19.418 4.534,19.618 C4.922,19.768 5.505,19.948 6.579,19.997 C7.741,20.050 8.089,20.061 11.031,20.061 C13.973,20.061 14.321,20.050 15.482,19.997 C16.556,19.948 17.140,19.768 17.528,19.618 C18.042,19.418 18.409,19.179 18.795,18.793 C19.180,18.408 19.419,18.041 19.619,17.527 C19.770,17.139 19.949,16.556 19.998,15.481 C20.051,14.320 20.062,13.971 20.062,11.030 C20.062,8.088 20.051,7.740 19.998,6.578 ZM16.911,6.471 C16.181,6.471 15.589,5.879 15.589,5.149 C15.589,4.419 16.181,3.827 16.911,3.827 C17.642,3.827 18.233,4.419 18.233,5.149 C18.233,5.879 17.642,6.471 16.911,6.471 ZM11.031,16.687 C7.907,16.687 5.374,14.154 5.374,11.030 C5.374,7.906 7.907,5.373 11.031,5.373 C14.155,5.373 16.688,7.906 16.688,11.030 C16.688,14.154 14.155,16.687 11.031,16.687 ZM11.031,7.358 C9.003,7.358 7.359,9.002 7.359,11.030 C7.359,13.058 9.003,14.702 11.031,14.702 C13.059,14.702 14.703,13.058 14.703,11.030 C14.703,9.002 13.059,7.358 11.031,7.358 Z" class="cls-1"/>
</svg>
