<svg xmlns="http://www.w3.org/2000/svg" xmlns:xlink="http://www.w3.org/1999/xlink" preserveAspectRatio="xMidYMid" width="22.938" height="18.66" viewBox="0 0 22.938 18.66">
  <defs>
    <style>
      .cls-1 {
        fill: #fff;
        fill-rule: evenodd;
      }
    </style>
  </defs>
  <path d="M22.950,2.205 C22.105,2.580 21.197,2.833 20.244,2.947 C21.217,2.364 21.964,1.440 22.316,0.339 C21.405,0.880 20.397,1.272 19.324,1.483 C18.465,0.567 17.240,-0.005 15.886,-0.005 C13.284,-0.005 11.174,2.105 11.174,4.708 C11.174,5.078 11.216,5.438 11.296,5.783 C7.381,5.586 3.910,3.709 1.586,0.857 C1.181,1.554 0.948,2.363 0.948,3.227 C0.948,4.863 1.780,6.306 3.044,7.151 C2.272,7.127 1.545,6.914 0.910,6.561 C0.910,6.581 0.910,6.601 0.910,6.621 C0.910,8.904 2.534,10.810 4.689,11.243 C4.294,11.350 3.877,11.408 3.448,11.408 C3.144,11.408 2.849,11.379 2.561,11.323 C3.161,13.196 4.901,14.559 6.962,14.597 C5.350,15.862 3.319,16.615 1.111,16.615 C0.731,16.615 0.356,16.593 -0.012,16.550 C2.073,17.887 4.549,18.667 7.209,18.667 C15.875,18.667 20.613,11.484 20.613,5.255 C20.613,5.051 20.608,4.847 20.599,4.645 C21.520,3.981 22.318,3.150 22.950,2.205 Z" class="cls-1"/>
</svg>
