<svg xmlns="http://www.w3.org/2000/svg" xmlns:xlink="http://www.w3.org/1999/xlink" preserveAspectRatio="xMidYMid" width="26" height="15" viewBox="0 0 26 15">
  <defs>
    <style>
      .cls-1 {
        fill: #fff;
        fill-rule: evenodd;
      }
    </style>
  </defs>
  <path d="M21.598,7.356 C21.598,7.356 25.024,2.594 25.365,1.029 C25.478,0.470 25.229,0.157 24.639,0.157 C24.639,0.157 22.665,0.157 21.667,0.157 C20.986,0.157 20.736,0.448 20.532,0.873 C20.532,0.873 18.925,4.246 16.970,6.372 C16.343,7.060 16.023,7.266 15.677,7.266 C15.398,7.266 15.269,7.037 15.269,6.417 L15.269,0.984 C15.269,0.225 15.178,0.001 14.543,0.001 L9.778,0.001 C9.415,0.001 9.188,0.209 9.188,0.492 C9.188,1.208 10.300,1.370 10.300,3.309 L10.300,7.311 C10.300,8.116 10.255,8.429 9.869,8.429 C8.848,8.429 6.420,4.964 5.059,1.029 C4.787,0.225 4.492,0.001 3.721,0.001 L0.749,0.001 C0.318,0.001 -0.000,0.291 -0.000,0.716 C-0.000,1.499 0.930,5.120 4.583,9.971 C7.033,13.235 10.255,15.001 13.159,15.001 C14.928,15.001 15.359,14.711 15.359,13.973 L15.359,11.469 C15.359,10.843 15.609,10.575 15.972,10.575 C16.380,10.575 17.101,10.704 18.785,12.341 C20.782,14.219 20.918,15.001 22.007,15.001 L25.342,15.001 C25.682,15.001 26.000,14.845 26.000,14.286 C26.000,13.548 25.024,12.229 23.527,10.664 C22.914,9.859 21.916,8.988 21.598,8.585 C21.145,8.116 21.281,7.848 21.598,7.356 Z" class="cls-1"/>
</svg>
