<svg xmlns="http://www.w3.org/2000/svg" xmlns:xlink="http://www.w3.org/1999/xlink" preserveAspectRatio="xMidYMid" width="28" height="28" viewBox="0 0 28 28">
  <defs>
    <style>
      .cls-1 {
        fill: #757575;
        fill-rule: evenodd;
      }
    </style>
  </defs>
  <path d="M14.000,-0.000 C6.268,-0.000 -0.000,6.268 -0.000,14.000 C-0.000,21.732 6.268,28.000 14.000,28.000 C21.732,28.000 28.000,21.732 28.000,14.000 C28.000,6.268 21.732,-0.000 14.000,-0.000 ZM10.668,8.261 C10.668,6.420 12.160,4.928 14.000,4.928 C15.841,4.928 17.333,6.420 17.333,8.261 L17.333,10.650 C17.333,12.490 15.841,13.982 14.000,13.982 C12.160,13.982 10.668,12.490 10.668,10.650 L10.668,8.261 ZM22.067,21.537 C22.067,21.537 18.667,25.187 14.064,25.187 C9.461,25.187 5.932,21.537 5.932,21.537 L5.932,17.804 C5.932,17.804 9.290,15.826 14.116,15.826 C18.943,15.826 22.067,17.804 22.067,17.804 L22.067,21.537 Z" class="cls-1"/>
</svg>
