<svg xmlns="http://www.w3.org/2000/svg" xmlns:xlink="http://www.w3.org/1999/xlink" preserveAspectRatio="xMidYMid" width="75.031" height="54" viewBox="0 0 75.031 54">
  <defs>
    <style>
      .cls-1 {
        fill: #ff6800;
        fill-rule: evenodd;
      }
    </style>
  </defs>
  <path d="M4.679,36.693 C2.674,39.085 1.365,44.603 0.561,47.617 L0.423,48.122 C0.063,49.409 -0.247,50.520 0.311,51.852 C0.859,53.156 2.128,54.000 3.544,54.000 L71.485,54.000 C72.899,54.000 74.168,53.157 74.717,51.853 C75.276,50.522 74.965,49.411 74.607,48.123 L74.469,47.620 C73.664,44.606 72.356,39.088 70.354,36.697 C66.428,32.011 60.672,29.323 54.560,29.323 L40.459,29.323 C39.542,29.323 39.078,28.858 39.078,27.942 L39.078,22.807 C39.078,21.698 39.902,21.514 40.449,21.393 L40.694,21.336 C42.116,20.972 43.327,20.393 44.503,19.515 C46.229,18.223 47.346,16.751 48.122,14.741 C49.609,10.890 48.750,6.454 45.934,3.438 C43.075,0.374 38.813,-0.759 34.809,0.482 C30.806,1.723 27.930,5.068 27.303,9.213 C27.215,9.792 27.615,10.335 28.194,10.423 C28.775,10.509 29.315,10.110 29.403,9.531 C29.975,5.750 32.779,2.890 36.546,2.245 C40.316,1.598 43.909,3.364 45.705,6.739 C47.473,10.064 46.915,14.127 44.315,16.851 C43.095,18.129 41.692,18.892 39.621,19.402 C38.050,19.788 36.954,21.187 36.954,22.806 L36.954,27.940 C36.954,29.873 38.526,31.447 40.458,31.447 L54.559,31.447 C59.323,31.447 63.846,33.254 67.296,36.536 C69.054,38.207 70.343,43.013 71.354,45.219 C71.852,46.298 72.229,47.382 72.509,48.529 L72.583,48.816 C72.797,49.627 73.091,50.739 72.578,51.404 C72.338,51.716 71.970,51.874 71.485,51.874 L3.544,51.874 C3.058,51.874 2.690,51.716 2.450,51.404 C1.937,50.737 2.231,49.626 2.446,48.814 L2.519,48.530 C2.805,47.370 3.183,46.285 3.676,45.216 C4.686,43.013 5.977,38.207 7.737,36.533 C11.188,33.253 15.709,31.447 20.470,31.447 L28.242,31.447 C28.828,31.447 29.304,30.970 29.304,30.384 C29.304,29.799 28.828,29.323 28.242,29.323 L20.470,29.323 C14.359,29.323 8.603,32.009 4.679,36.693 Z" class="cls-1"/>
</svg>
