<svg xmlns="http://www.w3.org/2000/svg" xmlns:xlink="http://www.w3.org/1999/xlink" preserveAspectRatio="xMidYMid" width="54" height="63" viewBox="0 0 54 63">
  <defs>
    <style>
      .cls-1 {
        fill: #ff6800;
        fill-rule: evenodd;
      }
    </style>
  </defs>
  <path d="M36.846,63.008 L17.082,63.008 L0.008,63.008 L0.008,19.613 L53.920,19.613 L53.996,19.613 L53.996,63.008 L36.846,63.008 ZM18.907,61.182 L35.021,61.182 L35.021,41.136 L18.907,41.136 L18.907,61.182 ZM52.096,21.438 L1.832,21.438 L1.832,61.182 L17.082,61.182 L17.082,39.311 L36.846,39.311 L36.846,61.182 L52.096,61.182 L52.096,21.438 ZM26.964,34.519 C24.152,34.519 21.871,32.238 21.871,29.424 C21.871,26.610 24.152,24.328 26.964,24.328 C29.776,24.328 32.057,26.686 32.057,29.424 C32.057,32.238 29.776,34.519 26.964,34.519 ZM26.964,26.153 C25.140,26.153 23.695,27.598 23.695,29.424 C23.695,31.249 25.140,32.694 26.964,32.694 C28.788,32.694 30.232,31.249 30.232,29.424 C30.232,27.598 28.788,26.153 26.964,26.153 ZM37.758,3.566 L37.758,13.225 L35.933,13.225 L35.933,3.566 L30.917,8.433 L29.624,7.141 L36.846,-0.008 L43.991,7.141 L42.699,8.509 L37.758,3.566 ZM9.937,5.848 L11.229,4.631 L16.170,9.726 L16.170,0.296 L17.994,0.296 L17.994,9.726 L23.011,4.479 L24.303,5.772 L17.082,12.996 L9.937,5.848 Z" class="cls-1"/>
</svg>
